About – FISHFAN
…
all_trips

# A tibble: 41 × 5
   team  date   from  to    miles
   <chr> <chr>  <chr> <chr> <dbl>
 1 CLE   May 22 CLE   GAR     846
 2 CLE   May 26 GAR   CHI      39
 3 CLE   May 29 CHI   GAR      39
 4 KCO   May 19 KCO   WPG     697
 5 KCO   May 22 WPG   FM      209
 6 KCO   May 27 FM    KCO     542
 7 CHI   May 19 CHI   KC      406
 8 CHI   May 22 KC    SF      325
 9 CHI   May 26 SF    CHI     462
10 MKE   May 22 MKE   WPG     650
# ℹ 31 more rows
…
